[gd_scene load_steps=3 format=2]

[ext_resource path="res://item_hover_label.gd" type="Script" id=1]

[sub_resource type="StyleBoxFlat" id=1]

content_margin_left = 5.0
content_margin_right = 5.0
content_margin_top = 6.0
content_margin_bottom = 6.0
bg_color = Color( 0, 0, 0, 0.7 )

[node name="ItemHoverLabel" type="Label"]
margin_right = 145.0
margin_bottom = 26.0
custom_styles/normal = SubResource( 1 )
custom_colors/font_color = Color( 1, 1, 1, 1 )
text = "Item name"
align = 1
script = ExtResource( 1 )

